^C:\USERS\JEONGSEONGHO\DOCUMENTS\VISUAL STUDIO 2015\PROJECTS\MFC\MAPTOOL 주말과제\CLIENT\DEBUG\CLIENT.OBJ|C:\USERS\JEONGSEONGHO\DOCUMENTS\VISUAL STUDIO 2015\PROJECTS\MFC\MAPTOOL 주말과제\CLIENT\DEBUG\CLIENT.RES|C:\USERS\JEONGSEONGHO\DOCUMENTS\VISUAL STUDIO 2015\PROJECTS\MFC\MAPTOOL 주말과제\CLIENT\DEBUG\DEVICEMGR.OBJ|C:\USERS\JEONGSEONGHO\DOCUMENTS\VISUAL STUDIO 2015\PROJECTS\MFC\MAPTOOL 주말과제\CLIENT\DEBUG\FRAMEMGR.OBJ|C:\USERS\JEONGSEONGHO\DOCUMENTS\VISUAL STUDIO 2015\PROJECTS\MFC\MAPTOOL 주말과제\CLIENT\DEBUG\MAINGAME.OBJ|C:\USERS\JEONGSEONGHO\DOCUMENTS\VISUAL STUDIO 2015\PROJECTS\MFC\MAPTOOL 주말과제\CLIENT\DEBUG\MATHMGR.OBJ|C:\USERS\JEONGSEONGHO\DOCUMENTS\VISUAL STUDIO 2015\PROJECTS\MFC\MAPTOOL 주말과제\CLIENT\DEBUG\MOUSE.OBJ|C:\USERS\JEONGSEONGHO\DOCUMENTS\VISUAL STUDIO 2015\PROJECTS\MFC\MAPTOOL 주말과제\CLIENT\DEBUG\MULTITEXTURE.OBJ|C:\USERS\JEONGSEONGHO\DOCUMENTS\VISUAL STUDIO 2015\PROJECTS\MFC\MAPTOOL 주말과제\CLIENT\DEBUG\OBJ.OBJ|C:\USERS\JEONGSEONGHO\DOCUMENTS\VISUAL STUDIO 2015\PROJECTS\MFC\MAPTOOL 주말과제\CLIENT\DEBUG\OBJMGR.OBJ|C:\USERS\JEONGSEONGHO\DOCUMENTS\VISUAL STUDIO 2015\PROJECTS\MFC\MAPTOOL 주말과제\CLIENT\DEBUG\PLAYER.OBJ|C:\USERS\JEONGSEONGHO\DOCUMENTS\VISUAL STUDIO 2015\PROJECTS\MFC\MAPTOOL 주말과제\CLIENT\DEBUG\SCENE.OBJ|C:\USERS\JEONGSEONGHO\DOCUMENTS\VISUAL STUDIO 2015\PROJECTS\MFC\MAPTOOL 주말과제\CLIENT\DEBUG\SCENEMGR.OBJ|C:\USERS\JEONGSEONGHO\DOCUMENTS\VISUAL STUDIO 2015\PROJECTS\MFC\MAPTOOL 주말과제\CLIENT\DEBUG\SCROLLMGR.OBJ|C:\USERS\JEONGSEONGHO\DOCUMENTS\VISUAL STUDIO 2015\PROJECTS\MFC\MAPTOOL 주말과제\CLIENT\DEBUG\SINGLETEXTURE.OBJ|C:\USERS\JEONGSEONGHO\DOCUMENTS\VISUAL STUDIO 2015\PROJECTS\MFC\MAPTOOL 주말과제\CLIENT\DEBUG\STAGE.OBJ|C:\USERS\JEONGSEONGHO\DOCUMENTS\VISUAL STUDIO 2015\PROJECTS\MFC\MAPTOOL 주말과제\CLIENT\DEBUG\STDAFX.OBJ|C:\USERS\JEONGSEONGHO\DOCUMENTS\VISUAL STUDIO 2015\PROJECTS\MFC\MAPTOOL 주말과제\CLIENT\DEBUG\TERRAIN.OBJ|C:\USERS\JEONGSEONGHO\DOCUMENTS\VISUAL STUDIO 2015\PROJECTS\MFC\MAPTOOL 주말과제\CLIENT\DEBUG\TEXTURE.OBJ|C:\USERS\JEONGSEONGHO\DOCUMENTS\VISUAL STUDIO 2015\PROJECTS\MFC\MAPTOOL 주말과제\CLIENT\DEBUG\TEXTUREMGR.OBJ|C:\USERS\JEONGSEONGHO\DOCUMENTS\VISUAL STUDIO 2015\PROJECTS\MFC\MAPTOOL 주말과제\CLIENT\DEBUG\TIMEMGR.OBJ
C:\WINDOWS\GLOBALIZATION\SORTING\SORTDEFAULT.NLS
C:\PROGRAM FILES (X86)\WINDOWS KITS\8.1\LIB\WINV6.3\UM\X86\KERNEL32.LIB
C:\PROGRAM FILES (X86)\WINDOWS KITS\8.1\LIB\WINV6.3\UM\X86\USER32.LIB
C:\PROGRAM FILES (X86)\WINDOWS KITS\8.1\LIB\WINV6.3\UM\X86\GDI32.LIB
C:\PROGRAM FILES (X86)\WINDOWS KITS\8.1\LIB\WINV6.3\UM\X86\WINSPOOL.LIB
C:\PROGRAM FILES (X86)\WINDOWS KITS\8.1\LIB\WINV6.3\UM\X86\COMDLG32.LIB
C:\PROGRAM FILES (X86)\WINDOWS KITS\8.1\LIB\WINV6.3\UM\X86\ADVAPI32.LIB
C:\PROGRAM FILES (X86)\WINDOWS KITS\8.1\LIB\WINV6.3\UM\X86\SHELL32.LIB
C:\PROGRAM FILES (X86)\WINDOWS KITS\8.1\LIB\WINV6.3\UM\X86\OLE32.LIB
C:\PROGRAM FILES (X86)\WINDOWS KITS\8.1\LIB\WINV6.3\UM\X86\OLEAUT32.LIB
C:\PROGRAM FILES (X86)\WINDOWS KITS\8.1\LIB\WINV6.3\UM\X86\UUID.LIB
C:\PROGRAM FILES (X86)\WINDOWS KITS\8.1\LIB\WINV6.3\UM\X86\ODBC32.LIB
C:\PROGRAM FILES (X86)\WINDOWS KITS\8.1\LIB\WINV6.3\UM\X86\ODBCCP32.LIB
C:\USERS\JEONGSEONGHO\DOCUMENTS\VISUAL STUDIO 2015\PROJECTS\MFC\MAPTOOL 주말과제\CLIENT\DEBUG\CLIENT.RES
C:\USERS\JEONGSEONGHO\DOCUMENTS\VISUAL STUDIO 2015\PROJECTS\MFC\MAPTOOL 주말과제\CLIENT\DEBUG\CLIENT.OBJ
C:\USERS\JEONGSEONGHO\DOCUMENTS\VISUAL STUDIO 2015\PROJECTS\MFC\MAPTOOL 주말과제\CLIENT\DEBUG\DEVICEMGR.OBJ
C:\USERS\JEONGSEONGHO\DOCUMENTS\VISUAL STUDIO 2015\PROJECTS\MFC\MAPTOOL 주말과제\CLIENT\DEBUG\FRAMEMGR.OBJ
C:\USERS\JEONGSEONGHO\DOCUMENTS\VISUAL STUDIO 2015\PROJECTS\MFC\MAPTOOL 주말과제\CLIENT\DEBUG\MAINGAME.OBJ
C:\USERS\JEONGSEONGHO\DOCUMENTS\VISUAL STUDIO 2015\PROJECTS\MFC\MAPTOOL 주말과제\CLIENT\DEBUG\MATHMGR.OBJ
C:\USERS\JEONGSEONGHO\DOCUMENTS\VISUAL STUDIO 2015\PROJECTS\MFC\MAPTOOL 주말과제\CLIENT\DEBUG\MOUSE.OBJ
C:\USERS\JEONGSEONGHO\DOCUMENTS\VISUAL STUDIO 2015\PROJECTS\MFC\MAPTOOL 주말과제\CLIENT\DEBUG\MULTITEXTURE.OBJ
C:\USERS\JEONGSEONGHO\DOCUMENTS\VISUAL STUDIO 2015\PROJECTS\MFC\MAPTOOL 주말과제\CLIENT\DEBUG\OBJ.OBJ
C:\USERS\JEONGSEONGHO\DOCUMENTS\VISUAL STUDIO 2015\PROJECTS\MFC\MAPTOOL 주말과제\CLIENT\DEBUG\OBJMGR.OBJ
C:\USERS\JEONGSEONGHO\DOCUMENTS\VISUAL STUDIO 2015\PROJECTS\MFC\MAPTOOL 주말과제\CLIENT\DEBUG\PLAYER.OBJ
C:\USERS\JEONGSEONGHO\DOCUMENTS\VISUAL STUDIO 2015\PROJECTS\MFC\MAPTOOL 주말과제\CLIENT\DEBUG\SCENE.OBJ
C:\USERS\JEONGSEONGHO\DOCUMENTS\VISUAL STUDIO 2015\PROJECTS\MFC\MAPTOOL 주말과제\CLIENT\DEBUG\SCENEMGR.OBJ
C:\USERS\JEONGSEONGHO\DOCUMENTS\VISUAL STUDIO 2015\PROJECTS\MFC\MAPTOOL 주말과제\CLIENT\DEBUG\SCROLLMGR.OBJ
C:\USERS\JEONGSEONGHO\DOCUMENTS\VISUAL STUDIO 2015\PROJECTS\MFC\MAPTOOL 주말과제\CLIENT\DEBUG\SINGLETEXTURE.OBJ
C:\USERS\JEONGSEONGHO\DOCUMENTS\VISUAL STUDIO 2015\PROJECTS\MFC\MAPTOOL 주말과제\CLIENT\DEBUG\STAGE.OBJ
C:\USERS\JEONGSEONGHO\DOCUMENTS\VISUAL STUDIO 2015\PROJECTS\MFC\MAPTOOL 주말과제\CLIENT\DEBUG\STDAFX.OBJ
C:\USERS\JEONGSEONGHO\DOCUMENTS\VISUAL STUDIO 2015\PROJECTS\MFC\MAPTOOL 주말과제\CLIENT\DEBUG\TERRAIN.OBJ
C:\USERS\JEONGSEONGHO\DOCUMENTS\VISUAL STUDIO 2015\PROJECTS\MFC\MAPTOOL 주말과제\CLIENT\DEBUG\TEXTURE.OBJ
C:\USERS\JEONGSEONGHO\DOCUMENTS\VISUAL STUDIO 2015\PROJECTS\MFC\MAPTOOL 주말과제\CLIENT\DEBUG\TEXTUREMGR.OBJ
C:\USERS\JEONGSEONGHO\DOCUMENTS\VISUAL STUDIO 2015\PROJECTS\MFC\MAPTOOL 주말과제\CLIENT\DEBUG\TIMEMGR.OBJ
C:\WINDOWS\SYSTEM32\TZRES.DLL
C:\PROGRAM FILES (X86)\MICROSOFT VISUAL STUDIO 14.0\VC\LIB\MSVCPRTD.LIB
C:\PROGRAM FILES (X86)\MICROSOFT DIRECTX SDK (JUNE 2010)\LIB\X86\D3D9.LIB
C:\PROGRAM FILES (X86)\MICROSOFT DIRECTX SDK (JUNE 2010)\LIB\X86\D3DX9.LIB
C:\PROGRAM FILES (X86)\VISUAL LEAK DETECTOR\LIB\WIN32\VLD.LIB
C:\PROGRAM FILES (X86)\MICROSOFT VISUAL STUDIO 14.0\VC\LIB\MSVCRTD.LIB
C:\PROGRAM FILES (X86)\MICROSOFT VISUAL STUDIO 14.0\VC\LIB\OLDNAMES.LIB
C:\PROGRAM FILES (X86)\MICROSOFT VISUAL STUDIO 14.0\VC\LIB\VCRUNTIMED.LIB
C:\PROGRAM FILES (X86)\WINDOWS KITS\10\LIB\10.0.10240.0\UCRT\X86\UCRTD.LIB
^C:\USERS\JEONGSEONGHO\DOCUMENTS\VISUAL STUDIO 2015\PROJECTS\MFC\MAPTOOL 181023HW\CLIENT\DEBUG\CLIENT.OBJ|C:\USERS\JEONGSEONGHO\DOCUMENTS\VISUAL STUDIO 2015\PROJECTS\MFC\MAPTOOL 181023HW\CLIENT\DEBUG\CLIENT.RES|C:\USERS\JEONGSEONGHO\DOCUMENTS\VISUAL STUDIO 2015\PROJECTS\MFC\MAPTOOL 181023HW\CLIENT\DEBUG\DEVICEMGR.OBJ|C:\USERS\JEONGSEONGHO\DOCUMENTS\VISUAL STUDIO 2015\PROJECTS\MFC\MAPTOOL 181023HW\CLIENT\DEBUG\FRAMEMGR.OBJ|C:\USERS\JEONGSEONGHO\DOCUMENTS\VISUAL STUDIO 2015\PROJECTS\MFC\MAPTOOL 181023HW\CLIENT\DEBUG\MAINGAME.OBJ|C:\USERS\JEONGSEONGHO\DOCUMENTS\VISUAL STUDIO 2015\PROJECTS\MFC\MAPTOOL 181023HW\CLIENT\DEBUG\MATHMGR.OBJ|C:\USERS\JEONGSEONGHO\DOCUMENTS\VISUAL STUDIO 2015\PROJECTS\MFC\MAPTOOL 181023HW\CLIENT\DEBUG\MOUSE.OBJ|C:\USERS\JEONGSEONGHO\DOCUMENTS\VISUAL STUDIO 2015\PROJECTS\MFC\MAPTOOL 181023HW\CLIENT\DEBUG\MULTITEXTURE.OBJ|C:\USERS\JEONGSEONGHO\DOCUMENTS\VISUAL STUDIO 2015\PROJECTS\MFC\MAPTOOL 181023HW\CLIENT\DEBUG\OBJ.OBJ|C:\USERS\JEONGSEONGHO\DOCUMENTS\VISUAL STUDIO 2015\PROJECTS\MFC\MAPTOOL 181023HW\CLIENT\DEBUG\OBJMGR.OBJ|C:\USERS\JEONGSEONGHO\DOCUMENTS\VISUAL STUDIO 2015\PROJECTS\MFC\MAPTOOL 181023HW\CLIENT\DEBUG\PLAYER.OBJ|C:\USERS\JEONGSEONGHO\DOCUMENTS\VISUAL STUDIO 2015\PROJECTS\MFC\MAPTOOL 181023HW\CLIENT\DEBUG\SCENE.OBJ|C:\USERS\JEONGSEONGHO\DOCUMENTS\VISUAL STUDIO 2015\PROJECTS\MFC\MAPTOOL 181023HW\CLIENT\DEBUG\SCENEMGR.OBJ|C:\USERS\JEONGSEONGHO\DOCUMENTS\VISUAL STUDIO 2015\PROJECTS\MFC\MAPTOOL 181023HW\CLIENT\DEBUG\SCROLLMGR.OBJ|C:\USERS\JEONGSEONGHO\DOCUMENTS\VISUAL STUDIO 2015\PROJECTS\MFC\MAPTOOL 181023HW\CLIENT\DEBUG\SINGLETEXTURE.OBJ|C:\USERS\JEONGSEONGHO\DOCUMENTS\VISUAL STUDIO 2015\PROJECTS\MFC\MAPTOOL 181023HW\CLIENT\DEBUG\STAGE.OBJ|C:\USERS\JEONGSEONGHO\DOCUMENTS\VISUAL STUDIO 2015\PROJECTS\MFC\MAPTOOL 181023HW\CLIENT\DEBUG\STDAFX.OBJ|C:\USERS\JEONGSEONGHO\DOCUMENTS\VISUAL STUDIO 2015\PROJECTS\MFC\MAPTOOL 181023HW\CLIENT\DEBUG\TERRAIN.OBJ|C:\USERS\JEONGSEONGHO\DOCUMENTS\VISUAL STUDIO 2015\PROJECTS\MFC\MAPTOOL 181023HW\CLIENT\DEBUG\TEXTURE.OBJ|C:\USERS\JEONGSEONGHO\DOCUMENTS\VISUAL STUDIO 2015\PROJECTS\MFC\MAPTOOL 181023HW\CLIENT\DEBUG\TEXTUREMGR.OBJ|C:\USERS\JEONGSEONGHO\DOCUMENTS\VISUAL STUDIO 2015\PROJECTS\MFC\MAPTOOL 181023HW\CLIENT\DEBUG\TIMEMGR.OBJ
C:\WINDOWS\GLOBALIZATION\SORTING\SORTDEFAULT.NLS
C:\PROGRAM FILES (X86)\WINDOWS KITS\8.1\LIB\WINV6.3\UM\X86\KERNEL32.LIB
C:\PROGRAM FILES (X86)\WINDOWS KITS\8.1\LIB\WINV6.3\UM\X86\USER32.LIB
C:\PROGRAM FILES (X86)\WINDOWS KITS\8.1\LIB\WINV6.3\UM\X86\GDI32.LIB
C:\PROGRAM FILES (X86)\WINDOWS KITS\8.1\LIB\WINV6.3\UM\X86\WINSPOOL.LIB
C:\PROGRAM FILES (X86)\WINDOWS KITS\8.1\LIB\WINV6.3\UM\X86\COMDLG32.LIB
C:\PROGRAM FILES (X86)\WINDOWS KITS\8.1\LIB\WINV6.3\UM\X86\ADVAPI32.LIB
C:\PROGRAM FILES (X86)\WINDOWS KITS\8.1\LIB\WINV6.3\UM\X86\SHELL32.LIB
C:\PROGRAM FILES (X86)\WINDOWS KITS\8.1\LIB\WINV6.3\UM\X86\OLE32.LIB
C:\PROGRAM FILES (X86)\WINDOWS KITS\8.1\LIB\WINV6.3\UM\X86\OLEAUT32.LIB
C:\PROGRAM FILES (X86)\WINDOWS KITS\8.1\LIB\WINV6.3\UM\X86\UUID.LIB
C:\PROGRAM FILES (X86)\WINDOWS KITS\8.1\LIB\WINV6.3\UM\X86\ODBC32.LIB
C:\PROGRAM FILES (X86)\WINDOWS KITS\8.1\LIB\WINV6.3\UM\X86\ODBCCP32.LIB
C:\USERS\JEONGSEONGHO\DOCUMENTS\VISUAL STUDIO 2015\PROJECTS\MFC\MAPTOOL 181023HW\CLIENT\DEBUG\CLIENT.RES
C:\USERS\JEONGSEONGHO\DOCUMENTS\VISUAL STUDIO 2015\PROJECTS\MFC\MAPTOOL 181023HW\CLIENT\DEBUG\CLIENT.OBJ
C:\USERS\JEONGSEONGHO\DOCUMENTS\VISUAL STUDIO 2015\PROJECTS\MFC\MAPTOOL 181023HW\CLIENT\DEBUG\DEVICEMGR.OBJ
C:\USERS\JEONGSEONGHO\DOCUMENTS\VISUAL STUDIO 2015\PROJECTS\MFC\MAPTOOL 181023HW\CLIENT\DEBUG\FRAMEMGR.OBJ
C:\USERS\JEONGSEONGHO\DOCUMENTS\VISUAL STUDIO 2015\PROJECTS\MFC\MAPTOOL 181023HW\CLIENT\DEBUG\MAINGAME.OBJ
C:\USERS\JEONGSEONGHO\DOCUMENTS\VISUAL STUDIO 2015\PROJECTS\MFC\MAPTOOL 181023HW\CLIENT\DEBUG\MATHMGR.OBJ
C:\USERS\JEONGSEONGHO\DOCUMENTS\VISUAL STUDIO 2015\PROJECTS\MFC\MAPTOOL 181023HW\CLIENT\DEBUG\MOUSE.OBJ
C:\USERS\JEONGSEONGHO\DOCUMENTS\VISUAL STUDIO 2015\PROJECTS\MFC\MAPTOOL 181023HW\CLIENT\DEBUG\MULTITEXTURE.OBJ
C:\USERS\JEONGSEONGHO\DOCUMENTS\VISUAL STUDIO 2015\PROJECTS\MFC\MAPTOOL 181023HW\CLIENT\DEBUG\OBJ.OBJ
C:\USERS\JEONGSEONGHO\DOCUMENTS\VISUAL STUDIO 2015\PROJECTS\MFC\MAPTOOL 181023HW\CLIENT\DEBUG\OBJMGR.OBJ
C:\USERS\JEONGSEONGHO\DOCUMENTS\VISUAL STUDIO 2015\PROJECTS\MFC\MAPTOOL 181023HW\CLIENT\DEBUG\PLAYER.OBJ
C:\USERS\JEONGSEONGHO\DOCUMENTS\VISUAL STUDIO 2015\PROJECTS\MFC\MAPTOOL 181023HW\CLIENT\DEBUG\SCENE.OBJ
C:\USERS\JEONGSEONGHO\DOCUMENTS\VISUAL STUDIO 2015\PROJECTS\MFC\MAPTOOL 181023HW\CLIENT\DEBUG\SCENEMGR.OBJ
C:\USERS\JEONGSEONGHO\DOCUMENTS\VISUAL STUDIO 2015\PROJECTS\MFC\MAPTOOL 181023HW\CLIENT\DEBUG\SCROLLMGR.OBJ
C:\USERS\JEONGSEONGHO\DOCUMENTS\VISUAL STUDIO 2015\PROJECTS\MFC\MAPTOOL 181023HW\CLIENT\DEBUG\SINGLETEXTURE.OBJ
C:\USERS\JEONGSEONGHO\DOCUMENTS\VISUAL STUDIO 2015\PROJECTS\MFC\MAPTOOL 181023HW\CLIENT\DEBUG\STAGE.OBJ
C:\USERS\JEONGSEONGHO\DOCUMENTS\VISUAL STUDIO 2015\PROJECTS\MFC\MAPTOOL 181023HW\CLIENT\DEBUG\STDAFX.OBJ
C:\USERS\JEONGSEONGHO\DOCUMENTS\VISUAL STUDIO 2015\PROJECTS\MFC\MAPTOOL 181023HW\CLIENT\DEBUG\TERRAIN.OBJ
C:\USERS\JEONGSEONGHO\DOCUMENTS\VISUAL STUDIO 2015\PROJECTS\MFC\MAPTOOL 181023HW\CLIENT\DEBUG\TEXTURE.OBJ
C:\USERS\JEONGSEONGHO\DOCUMENTS\VISUAL STUDIO 2015\PROJECTS\MFC\MAPTOOL 181023HW\CLIENT\DEBUG\TEXTUREMGR.OBJ
C:\USERS\JEONGSEONGHO\DOCUMENTS\VISUAL STUDIO 2015\PROJECTS\MFC\MAPTOOL 181023HW\CLIENT\DEBUG\TIMEMGR.OBJ
C:\WINDOWS\SYSTEM32\TZRES.DLL
C:\PROGRAM FILES (X86)\MICROSOFT VISUAL STUDIO 14.0\VC\LIB\MSVCPRTD.LIB
C:\PROGRAM FILES (X86)\MICROSOFT DIRECTX SDK (JUNE 2010)\LIB\X86\D3D9.LIB
C:\PROGRAM FILES (X86)\MICROSOFT DIRECTX SDK (JUNE 2010)\LIB\X86\D3DX9.LIB
C:\PROGRAM FILES (X86)\VISUAL LEAK DETECTOR\LIB\WIN32\VLD.LIB
C:\PROGRAM FILES (X86)\MICROSOFT VISUAL STUDIO 14.0\VC\LIB\MSVCRTD.LIB
C:\PROGRAM FILES (X86)\MICROSOFT VISUAL STUDIO 14.0\VC\LIB\OLDNAMES.LIB
C:\PROGRAM FILES (X86)\MICROSOFT VISUAL STUDIO 14.0\VC\LIB\VCRUNTIMED.LIB
C:\PROGRAM FILES (X86)\WINDOWS KITS\10\LIB\10.0.10240.0\UCRT\X86\UCRTD.LIB
^C:\USERS\JEONGSEONGHO\DOCUMENTS\VISUAL STUDIO 2015\PROJECTS\MFC\MAPTOOL 181025HW\CLIENT\DEBUG\CLIENT.OBJ|C:\USERS\JEONGSEONGHO\DOCUMENTS\VISUAL STUDIO 2015\PROJECTS\MFC\MAPTOOL 181025HW\CLIENT\DEBUG\CLIENT.RES|C:\USERS\JEONGSEONGHO\DOCUMENTS\VISUAL STUDIO 2015\PROJECTS\MFC\MAPTOOL 181025HW\CLIENT\DEBUG\DEVICEMGR.OBJ|C:\USERS\JEONGSEONGHO\DOCUMENTS\VISUAL STUDIO 2015\PROJECTS\MFC\MAPTOOL 181025HW\CLIENT\DEBUG\FRAMEMGR.OBJ|C:\USERS\JEONGSEONGHO\DOCUMENTS\VISUAL STUDIO 2015\PROJECTS\MFC\MAPTOOL 181025HW\CLIENT\DEBUG\MAINGAME.OBJ|C:\USERS\JEONGSEONGHO\DOCUMENTS\VISUAL STUDIO 2015\PROJECTS\MFC\MAPTOOL 181025HW\CLIENT\DEBUG\MATHMGR.OBJ|C:\USERS\JEONGSEONGHO\DOCUMENTS\VISUAL STUDIO 2015\PROJECTS\MFC\MAPTOOL 181025HW\CLIENT\DEBUG\MOUSE.OBJ|C:\USERS\JEONGSEONGHO\DOCUMENTS\VISUAL STUDIO 2015\PROJECTS\MFC\MAPTOOL 181025HW\CLIENT\DEBUG\MULTITEXTURE.OBJ|C:\USERS\JEONGSEONGHO\DOCUMENTS\VISUAL STUDIO 2015\PROJECTS\MFC\MAPTOOL 181025HW\CLIENT\DEBUG\OBJ.OBJ|C:\USERS\JEONGSEONGHO\DOCUMENTS\VISUAL STUDIO 2015\PROJECTS\MFC\MAPTOOL 181025HW\CLIENT\DEBUG\OBJMGR.OBJ|C:\USERS\JEONGSEONGHO\DOCUMENTS\VISUAL STUDIO 2015\PROJECTS\MFC\MAPTOOL 181025HW\CLIENT\DEBUG\PLAYER.OBJ|C:\USERS\JEONGSEONGHO\DOCUMENTS\VISUAL STUDIO 2015\PROJECTS\MFC\MAPTOOL 181025HW\CLIENT\DEBUG\SCENE.OBJ|C:\USERS\JEONGSEONGHO\DOCUMENTS\VISUAL STUDIO 2015\PROJECTS\MFC\MAPTOOL 181025HW\CLIENT\DEBUG\SCENEMGR.OBJ|C:\USERS\JEONGSEONGHO\DOCUMENTS\VISUAL STUDIO 2015\PROJECTS\MFC\MAPTOOL 181025HW\CLIENT\DEBUG\SCROLLMGR.OBJ|C:\USERS\JEONGSEONGHO\DOCUMENTS\VISUAL STUDIO 2015\PROJECTS\MFC\MAPTOOL 181025HW\CLIENT\DEBUG\SINGLETEXTURE.OBJ|C:\USERS\JEONGSEONGHO\DOCUMENTS\VISUAL STUDIO 2015\PROJECTS\MFC\MAPTOOL 181025HW\CLIENT\DEBUG\STAGE.OBJ|C:\USERS\JEONGSEONGHO\DOCUMENTS\VISUAL STUDIO 2015\PROJECTS\MFC\MAPTOOL 181025HW\CLIENT\DEBUG\STDAFX.OBJ|C:\USERS\JEONGSEONGHO\DOCUMENTS\VISUAL STUDIO 2015\PROJECTS\MFC\MAPTOOL 181025HW\CLIENT\DEBUG\TERRAIN.OBJ|C:\USERS\JEONGSEONGHO\DOCUMENTS\VISUAL STUDIO 2015\PROJECTS\MFC\MAPTOOL 181025HW\CLIENT\DEBUG\TEXTURE.OBJ|C:\USERS\JEONGSEONGHO\DOCUMENTS\VISUAL STUDIO 2015\PROJECTS\MFC\MAPTOOL 181025HW\CLIENT\DEBUG\TEXTUREMGR.OBJ|C:\USERS\JEONGSEONGHO\DOCUMENTS\VISUAL STUDIO 2015\PROJECTS\MFC\MAPTOOL 181025HW\CLIENT\DEBUG\TIMEMGR.OBJ
C:\WINDOWS\GLOBALIZATION\SORTING\SORTDEFAULT.NLS
C:\PROGRAM FILES (X86)\WINDOWS KITS\8.1\LIB\WINV6.3\UM\X86\KERNEL32.LIB
C:\PROGRAM FILES (X86)\WINDOWS KITS\8.1\LIB\WINV6.3\UM\X86\USER32.LIB
C:\PROGRAM FILES (X86)\WINDOWS KITS\8.1\LIB\WINV6.3\UM\X86\GDI32.LIB
C:\PROGRAM FILES (X86)\WINDOWS KITS\8.1\LIB\WINV6.3\UM\X86\WINSPOOL.LIB
C:\PROGRAM FILES (X86)\WINDOWS KITS\8.1\LIB\WINV6.3\UM\X86\COMDLG32.LIB
C:\PROGRAM FILES (X86)\WINDOWS KITS\8.1\LIB\WINV6.3\UM\X86\ADVAPI32.LIB
C:\PROGRAM FILES (X86)\WINDOWS KITS\8.1\LIB\WINV6.3\UM\X86\SHELL32.LIB
C:\PROGRAM FILES (X86)\WINDOWS KITS\8.1\LIB\WINV6.3\UM\X86\OLE32.LIB
C:\PROGRAM FILES (X86)\WINDOWS KITS\8.1\LIB\WINV6.3\UM\X86\OLEAUT32.LIB
C:\PROGRAM FILES (X86)\WINDOWS KITS\8.1\LIB\WINV6.3\UM\X86\UUID.LIB
C:\PROGRAM FILES (X86)\WINDOWS KITS\8.1\LIB\WINV6.3\UM\X86\ODBC32.LIB
C:\PROGRAM FILES (X86)\WINDOWS KITS\8.1\LIB\WINV6.3\UM\X86\ODBCCP32.LIB
C:\USERS\JEONGSEONGHO\DOCUMENTS\VISUAL STUDIO 2015\PROJECTS\MFC\MAPTOOL 181025HW\CLIENT\DEBUG\CLIENT.RES
C:\USERS\JEONGSEONGHO\DOCUMENTS\VISUAL STUDIO 2015\PROJECTS\MFC\MAPTOOL 181025HW\CLIENT\DEBUG\CLIENT.OBJ
C:\USERS\JEONGSEONGHO\DOCUMENTS\VISUAL STUDIO 2015\PROJECTS\MFC\MAPTOOL 181025HW\CLIENT\DEBUG\DEVICEMGR.OBJ
C:\USERS\JEONGSEONGHO\DOCUMENTS\VISUAL STUDIO 2015\PROJECTS\MFC\MAPTOOL 181025HW\CLIENT\DEBUG\FRAMEMGR.OBJ
C:\USERS\JEONGSEONGHO\DOCUMENTS\VISUAL STUDIO 2015\PROJECTS\MFC\MAPTOOL 181025HW\CLIENT\DEBUG\MAINGAME.OBJ
C:\USERS\JEONGSEONGHO\DOCUMENTS\VISUAL STUDIO 2015\PROJECTS\MFC\MAPTOOL 181025HW\CLIENT\DEBUG\MATHMGR.OBJ
C:\USERS\JEONGSEONGHO\DOCUMENTS\VISUAL STUDIO 2015\PROJECTS\MFC\MAPTOOL 181025HW\CLIENT\DEBUG\MOUSE.OBJ
C:\USERS\JEONGSEONGHO\DOCUMENTS\VISUAL STUDIO 2015\PROJECTS\MFC\MAPTOOL 181025HW\CLIENT\DEBUG\MULTITEXTURE.OBJ
C:\USERS\JEONGSEONGHO\DOCUMENTS\VISUAL STUDIO 2015\PROJECTS\MFC\MAPTOOL 181025HW\CLIENT\DEBUG\OBJ.OBJ
C:\USERS\JEONGSEONGHO\DOCUMENTS\VISUAL STUDIO 2015\PROJECTS\MFC\MAPTOOL 181025HW\CLIENT\DEBUG\OBJMGR.OBJ
C:\USERS\JEONGSEONGHO\DOCUMENTS\VISUAL STUDIO 2015\PROJECTS\MFC\MAPTOOL 181025HW\CLIENT\DEBUG\PLAYER.OBJ
C:\USERS\JEONGSEONGHO\DOCUMENTS\VISUAL STUDIO 2015\PROJECTS\MFC\MAPTOOL 181025HW\CLIENT\DEBUG\SCENE.OBJ
C:\USERS\JEONGSEONGHO\DOCUMENTS\VISUAL STUDIO 2015\PROJECTS\MFC\MAPTOOL 181025HW\CLIENT\DEBUG\SCENEMGR.OBJ
C:\USERS\JEONGSEONGHO\DOCUMENTS\VISUAL STUDIO 2015\PROJECTS\MFC\MAPTOOL 181025HW\CLIENT\DEBUG\SCROLLMGR.OBJ
C:\USERS\JEONGSEONGHO\DOCUMENTS\VISUAL STUDIO 2015\PROJECTS\MFC\MAPTOOL 181025HW\CLIENT\DEBUG\SINGLETEXTURE.OBJ
C:\USERS\JEONGSEONGHO\DOCUMENTS\VISUAL STUDIO 2015\PROJECTS\MFC\MAPTOOL 181025HW\CLIENT\DEBUG\STAGE.OBJ
C:\USERS\JEONGSEONGHO\DOCUMENTS\VISUAL STUDIO 2015\PROJECTS\MFC\MAPTOOL 181025HW\CLIENT\DEBUG\STDAFX.OBJ
C:\USERS\JEONGSEONGHO\DOCUMENTS\VISUAL STUDIO 2015\PROJECTS\MFC\MAPTOOL 181025HW\CLIENT\DEBUG\TERRAIN.OBJ
C:\USERS\JEONGSEONGHO\DOCUMENTS\VISUAL STUDIO 2015\PROJECTS\MFC\MAPTOOL 181025HW\CLIENT\DEBUG\TEXTURE.OBJ
C:\USERS\JEONGSEONGHO\DOCUMENTS\VISUAL STUDIO 2015\PROJECTS\MFC\MAPTOOL 181025HW\CLIENT\DEBUG\TEXTUREMGR.OBJ
C:\USERS\JEONGSEONGHO\DOCUMENTS\VISUAL STUDIO 2015\PROJECTS\MFC\MAPTOOL 181025HW\CLIENT\DEBUG\TIMEMGR.OBJ
C:\WINDOWS\SYSTEM32\TZRES.DLL
C:\PROGRAM FILES (X86)\MICROSOFT VISUAL STUDIO 14.0\VC\LIB\MSVCPRTD.LIB
C:\PROGRAM FILES (X86)\MICROSOFT DIRECTX SDK (JUNE 2010)\LIB\X86\D3D9.LIB
C:\PROGRAM FILES (X86)\MICROSOFT DIRECTX SDK (JUNE 2010)\LIB\X86\D3DX9.LIB
C:\PROGRAM FILES (X86)\VISUAL LEAK DETECTOR\LIB\WIN32\VLD.LIB
C:\PROGRAM FILES (X86)\MICROSOFT VISUAL STUDIO 14.0\VC\LIB\MSVCRTD.LIB
C:\PROGRAM FILES (X86)\MICROSOFT VISUAL STUDIO 14.0\VC\LIB\OLDNAMES.LIB
C:\PROGRAM FILES (X86)\MICROSOFT VISUAL STUDIO 14.0\VC\LIB\VCRUNTIMED.LIB
C:\PROGRAM FILES (X86)\WINDOWS KITS\10\LIB\10.0.10240.0\UCRT\X86\UCRTD.LIB
^C:\USERS\JEONGSEONGHO\DOCUMENTS\VISUAL STUDIO 2015\PROJECTS\브로포스\CLIENT\DEBUG\ANIMEFFECT.OBJ|C:\USERS\JEONGSEONGHO\DOCUMENTS\VISUAL STUDIO 2015\PROJECTS\브로포스\CLIENT\DEBUG\ASTARMGR.OBJ|C:\USERS\JEONGSEONGHO\DOCUMENTS\VISUAL STUDIO 2015\PROJECTS\브로포스\CLIENT\DEBUG\BULLET.OBJ|C:\USERS\JEONGSEONGHO\DOCUMENTS\VISUAL STUDIO 2015\PROJECTS\브로포스\CLIENT\DEBUG\CLIENT.OBJ|C:\USERS\JEONGSEONGHO\DOCUMENTS\VISUAL STUDIO 2015\PROJECTS\브로포스\CLIENT\DEBUG\CLIENT.RES|C:\USERS\JEONGSEONGHO\DOCUMENTS\VISUAL STUDIO 2015\PROJECTS\브로포스\CLIENT\DEBUG\COLLISIONMGR.OBJ|C:\USERS\JEONGSEONGHO\DOCUMENTS\VISUAL STUDIO 2015\PROJECTS\브로포스\CLIENT\DEBUG\DATASUBJECT.OBJ|C:\USERS\JEONGSEONGHO\DOCUMENTS\VISUAL STUDIO 2015\PROJECTS\브로포스\CLIENT\DEBUG\DEVICEMGR.OBJ|C:\USERS\JEONGSEONGHO\DOCUMENTS\VISUAL STUDIO 2015\PROJECTS\브로포스\CLIENT\DEBUG\EFFECT.OBJ|C:\USERS\JEONGSEONGHO\DOCUMENTS\VISUAL STUDIO 2015\PROJECTS\브로포스\CLIENT\DEBUG\EFFECTIMP.OBJ|C:\USERS\JEONGSEONGHO\DOCUMENTS\VISUAL STUDIO 2015\PROJECTS\브로포스\CLIENT\DEBUG\EXPLOSIVE.OBJ|C:\USERS\JEONGSEONGHO\DOCUMENTS\VISUAL STUDIO 2015\PROJECTS\브로포스\CLIENT\DEBUG\FLAG.OBJ|C:\USERS\JEONGSEONGHO\DOCUMENTS\VISUAL STUDIO 2015\PROJECTS\브로포스\CLIENT\DEBUG\FRAMEMGR.OBJ|C:\USERS\JEONGSEONGHO\DOCUMENTS\VISUAL STUDIO 2015\PROJECTS\브로포스\CLIENT\DEBUG\GRENADE.OBJ|C:\USERS\JEONGSEONGHO\DOCUMENTS\VISUAL STUDIO 2015\PROJECTS\브로포스\CLIENT\DEBUG\HELLICOPTER.OBJ|C:\USERS\JEONGSEONGHO\DOCUMENTS\VISUAL STUDIO 2015\PROJECTS\브로포스\CLIENT\DEBUG\HOSTAGE.OBJ|C:\USERS\JEONGSEONGHO\DOCUMENTS\VISUAL STUDIO 2015\PROJECTS\브로포스\CLIENT\DEBUG\KEYMGR.OBJ|C:\USERS\JEONGSEONGHO\DOCUMENTS\VISUAL STUDIO 2015\PROJECTS\브로포스\CLIENT\DEBUG\LOGO.OBJ|C:\USERS\JEONGSEONGHO\DOCUMENTS\VISUAL STUDIO 2015\PROJECTS\브로포스\CLIENT\DEBUG\MAINGAME.OBJ|C:\USERS\JEONGSEONGHO\DOCUMENTS\VISUAL STUDIO 2015\PROJECTS\브로포스\CLIENT\DEBUG\MATHMGR.OBJ|C:\USERS\JEONGSEONGHO\DOCUMENTS\VISUAL STUDIO 2015\PROJECTS\브로포스\CLIENT\DEBUG\MEGAHELLICOPTER.OBJ|C:\USERS\JEONGSEONGHO\DOCUMENTS\VISUAL STUDIO 2015\PROJECTS\브로포스\CLIENT\DEBUG\MOOK.OBJ|C:\USERS\JEONGSEONGHO\DOCUMENTS\VISUAL STUDIO 2015\PROJECTS\브로포스\CLIENT\DEBUG\MOOKTANK.OBJ|C:\USERS\JEONGSEONGHO\DOCUMENTS\VISUAL STUDIO 2015\PROJECTS\브로포스\CLIENT\DEBUG\MOUSE.OBJ|C:\USERS\JEONGSEONGHO\DOCUMENTS\VISUAL STUDIO 2015\PROJECTS\브로포스\CLIENT\DEBUG\MULTITEXTURE.OBJ|C:\USERS\JEONGSEONGHO\DOCUMENTS\VISUAL STUDIO 2015\PROJECTS\브로포스\CLIENT\DEBUG\NONANIMEFFECT.OBJ|C:\USERS\JEONGSEONGHO\DOCUMENTS\VISUAL STUDIO 2015\PROJECTS\브로포스\CLIENT\DEBUG\OBJ.OBJ|C:\USERS\JEONGSEONGHO\DOCUMENTS\VISUAL STUDIO 2015\PROJECTS\브로포스\CLIENT\DEBUG\OBJMGR.OBJ|C:\USERS\JEONGSEONGHO\DOCUMENTS\VISUAL STUDIO 2015\PROJECTS\브로포스\CLIENT\DEBUG\OBSERVER.OBJ|C:\USERS\JEONGSEONGHO\DOCUMENTS\VISUAL STUDIO 2015\PROJECTS\브로포스\CLIENT\DEBUG\PLAYER.OBJ|C:\USERS\JEONGSEONGHO\DOCUMENTS\VISUAL STUDIO 2015\PROJECTS\브로포스\CLIENT\DEBUG\SCENE.OBJ|C:\USERS\JEONGSEONGHO\DOCUMENTS\VISUAL STUDIO 2015\PROJECTS\브로포스\CLIENT\DEBUG\SCENEMGR.OBJ|C:\USERS\JEONGSEONGHO\DOCUMENTS\VISUAL STUDIO 2015\PROJECTS\브로포스\CLIENT\DEBUG\SCROLLMGR.OBJ|C:\USERS\JEONGSEONGHO\DOCUMENTS\VISUAL STUDIO 2015\PROJECTS\브로포스\CLIENT\DEBUG\SINGLETEXTURE.OBJ|C:\USERS\JEONGSEONGHO\DOCUMENTS\VISUAL STUDIO 2015\PROJECTS\브로포스\CLIENT\DEBUG\SOUNDMGR.OBJ|C:\USERS\JEONGSEONGHO\DOCUMENTS\VISUAL STUDIO 2015\PROJECTS\브로포스\CLIENT\DEBUG\STAGEBOSS.OBJ|C:\USERS\JEONGSEONGHO\DOCUMENTS\VISUAL STUDIO 2015\PROJECTS\브로포스\CLIENT\DEBUG\STAGEONE.OBJ|C:\USERS\JEONGSEONGHO\DOCUMENTS\VISUAL STUDIO 2015\PROJECTS\브로포스\CLIENT\DEBUG\STAGETWO.OBJ|C:\USERS\JEONGSEONGHO\DOCUMENTS\VISUAL STUDIO 2015\PROJECTS\브로포스\CLIENT\DEBUG\STDAFX.OBJ|C:\USERS\JEONGSEONGHO\DOCUMENTS\VISUAL STUDIO 2015\PROJECTS\브로포스\CLIENT\DEBUG\SUBJECT.OBJ|C:\USERS\JEONGSEONGHO\DOCUMENTS\VISUAL STUDIO 2015\PROJECTS\브로포스\CLIENT\DEBUG\SUICIDEMOOK.OBJ|C:\USERS\JEONGSEONGHO\DOCUMENTS\VISUAL STUDIO 2015\PROJECTS\브로포스\CLIENT\DEBUG\TERRAIN.OBJ|C:\USERS\JEONGSEONGHO\DOCUMENTS\VISUAL STUDIO 2015\PROJECTS\브로포스\CLIENT\DEBUG\TEXTURE.OBJ|C:\USERS\JEONGSEONGHO\DOCUMENTS\VISUAL STUDIO 2015\PROJECTS\브로포스\CLIENT\DEBUG\TEXTUREMGR.OBJ|C:\USERS\JEONGSEONGHO\DOCUMENTS\VISUAL STUDIO 2015\PROJECTS\브로포스\CLIENT\DEBUG\TIMEMGR.OBJ|C:\USERS\JEONGSEONGHO\DOCUMENTS\VISUAL STUDIO 2015\PROJECTS\브로포스\CLIENT\DEBUG\UI.OBJ|C:\USERS\JEONGSEONGHO\DOCUMENTS\VISUAL STUDIO 2015\PROJECTS\브로포스\CLIENT\DEBUG\UIBOMB.OBJ|C:\USERS\JEONGSEONGHO\DOCUMENTS\VISUAL STUDIO 2015\PROJECTS\브로포스\CLIENT\DEBUG\UIFACE.OBJ|C:\USERS\JEONGSEONGHO\DOCUMENTS\VISUAL STUDIO 2015\PROJECTS\브로포스\CLIENT\DEBUG\UILIVE.OBJ|C:\USERS\JEONGSEONGHO\DOCUMENTS\VISUAL STUDIO 2015\PROJECTS\브로포스\CLIENT\DEBUG\UIOBSERVER.OBJ
C:\WINDOWS\GLOBALIZATION\SORTING\SORTDEFAULT.NLS
C:\PROGRAM FILES (X86)\WINDOWS KITS\8.1\LIB\WINV6.3\UM\X86\KERNEL32.LIB
C:\PROGRAM FILES (X86)\WINDOWS KITS\8.1\LIB\WINV6.3\UM\X86\USER32.LIB
C:\PROGRAM FILES (X86)\WINDOWS KITS\8.1\LIB\WINV6.3\UM\X86\GDI32.LIB
C:\PROGRAM FILES (X86)\WINDOWS KITS\8.1\LIB\WINV6.3\UM\X86\WINSPOOL.LIB
C:\PROGRAM FILES (X86)\WINDOWS KITS\8.1\LIB\WINV6.3\UM\X86\COMDLG32.LIB
C:\PROGRAM FILES (X86)\WINDOWS KITS\8.1\LIB\WINV6.3\UM\X86\ADVAPI32.LIB
C:\PROGRAM FILES (X86)\WINDOWS KITS\8.1\LIB\WINV6.3\UM\X86\SHELL32.LIB
C:\PROGRAM FILES (X86)\WINDOWS KITS\8.1\LIB\WINV6.3\UM\X86\OLE32.LIB
C:\PROGRAM FILES (X86)\WINDOWS KITS\8.1\LIB\WINV6.3\UM\X86\OLEAUT32.LIB
C:\PROGRAM FILES (X86)\WINDOWS KITS\8.1\LIB\WINV6.3\UM\X86\UUID.LIB
C:\PROGRAM FILES (X86)\WINDOWS KITS\8.1\LIB\WINV6.3\UM\X86\ODBC32.LIB
C:\PROGRAM FILES (X86)\WINDOWS KITS\8.1\LIB\WINV6.3\UM\X86\ODBCCP32.LIB
C:\USERS\JEONGSEONGHO\DOCUMENTS\VISUAL STUDIO 2015\PROJECTS\브로포스\CLIENT\DEBUG\CLIENT.RES
C:\USERS\JEONGSEONGHO\DOCUMENTS\VISUAL STUDIO 2015\PROJECTS\브로포스\CLIENT\DEBUG\ANIMEFFECT.OBJ
C:\USERS\JEONGSEONGHO\DOCUMENTS\VISUAL STUDIO 2015\PROJECTS\브로포스\CLIENT\DEBUG\ASTARMGR.OBJ
C:\USERS\JEONGSEONGHO\DOCUMENTS\VISUAL STUDIO 2015\PROJECTS\브로포스\CLIENT\DEBUG\BULLET.OBJ
C:\USERS\JEONGSEONGHO\DOCUMENTS\VISUAL STUDIO 2015\PROJECTS\브로포스\CLIENT\DEBUG\CLIENT.OBJ
C:\USERS\JEONGSEONGHO\DOCUMENTS\VISUAL STUDIO 2015\PROJECTS\브로포스\CLIENT\DEBUG\COLLISIONMGR.OBJ
C:\USERS\JEONGSEONGHO\DOCUMENTS\VISUAL STUDIO 2015\PROJECTS\브로포스\CLIENT\DEBUG\DATASUBJECT.OBJ
C:\USERS\JEONGSEONGHO\DOCUMENTS\VISUAL STUDIO 2015\PROJECTS\브로포스\CLIENT\DEBUG\DEVICEMGR.OBJ
C:\USERS\JEONGSEONGHO\DOCUMENTS\VISUAL STUDIO 2015\PROJECTS\브로포스\CLIENT\DEBUG\EFFECT.OBJ
C:\USERS\JEONGSEONGHO\DOCUMENTS\VISUAL STUDIO 2015\PROJECTS\브로포스\CLIENT\DEBUG\EFFECTIMP.OBJ
C:\USERS\JEONGSEONGHO\DOCUMENTS\VISUAL STUDIO 2015\PROJECTS\브로포스\CLIENT\DEBUG\EXPLOSIVE.OBJ
C:\USERS\JEONGSEONGHO\DOCUMENTS\VISUAL STUDIO 2015\PROJECTS\브로포스\CLIENT\DEBUG\FRAMEMGR.OBJ
C:\USERS\JEONGSEONGHO\DOCUMENTS\VISUAL STUDIO 2015\PROJECTS\브로포스\CLIENT\DEBUG\GRENADE.OBJ
C:\USERS\JEONGSEONGHO\DOCUMENTS\VISUAL STUDIO 2015\PROJECTS\브로포스\CLIENT\DEBUG\HELLICOPTER.OBJ
C:\USERS\JEONGSEONGHO\DOCUMENTS\VISUAL STUDIO 2015\PROJECTS\브로포스\CLIENT\DEBUG\HOSTAGE.OBJ
C:\USERS\JEONGSEONGHO\DOCUMENTS\VISUAL STUDIO 2015\PROJECTS\브로포스\CLIENT\DEBUG\KEYMGR.OBJ
C:\USERS\JEONGSEONGHO\DOCUMENTS\VISUAL STUDIO 2015\PROJECTS\브로포스\CLIENT\DEBUG\LOGO.OBJ
C:\USERS\JEONGSEONGHO\DOCUMENTS\VISUAL STUDIO 2015\PROJECTS\브로포스\CLIENT\DEBUG\MAINGAME.OBJ
C:\USERS\JEONGSEONGHO\DOCUMENTS\VISUAL STUDIO 2015\PROJECTS\브로포스\CLIENT\DEBUG\MATHMGR.OBJ
C:\USERS\JEONGSEONGHO\DOCUMENTS\VISUAL STUDIO 2015\PROJECTS\브로포스\CLIENT\DEBUG\MEGAHELLICOPTER.OBJ
C:\USERS\JEONGSEONGHO\DOCUMENTS\VISUAL STUDIO 2015\PROJECTS\브로포스\CLIENT\DEBUG\MOOK.OBJ
C:\USERS\JEONGSEONGHO\DOCUMENTS\VISUAL STUDIO 2015\PROJECTS\브로포스\CLIENT\DEBUG\MOOKTANK.OBJ
C:\USERS\JEONGSEONGHO\DOCUMENTS\VISUAL STUDIO 2015\PROJECTS\브로포스\CLIENT\DEBUG\MOUSE.OBJ
C:\USERS\JEONGSEONGHO\DOCUMENTS\VISUAL STUDIO 2015\PROJECTS\브로포스\CLIENT\DEBUG\MULTITEXTURE.OBJ
C:\USERS\JEONGSEONGHO\DOCUMENTS\VISUAL STUDIO 2015\PROJECTS\브로포스\CLIENT\DEBUG\NONANIMEFFECT.OBJ
C:\USERS\JEONGSEONGHO\DOCUMENTS\VISUAL STUDIO 2015\PROJECTS\브로포스\CLIENT\DEBUG\OBJ.OBJ
C:\USERS\JEONGSEONGHO\DOCUMENTS\VISUAL STUDIO 2015\PROJECTS\브로포스\CLIENT\DEBUG\OBJMGR.OBJ
C:\USERS\JEONGSEONGHO\DOCUMENTS\VISUAL STUDIO 2015\PROJECTS\브로포스\CLIENT\DEBUG\FLAG.OBJ
C:\USERS\JEONGSEONGHO\DOCUMENTS\VISUAL STUDIO 2015\PROJECTS\브로포스\CLIENT\DEBUG\OBSERVER.OBJ
C:\USERS\JEONGSEONGHO\DOCUMENTS\VISUAL STUDIO 2015\PROJECTS\브로포스\CLIENT\DEBUG\PLAYER.OBJ
C:\USERS\JEONGSEONGHO\DOCUMENTS\VISUAL STUDIO 2015\PROJECTS\브로포스\CLIENT\DEBUG\SCENE.OBJ
C:\USERS\JEONGSEONGHO\DOCUMENTS\VISUAL STUDIO 2015\PROJECTS\브로포스\CLIENT\DEBUG\SCENEMGR.OBJ
C:\USERS\JEONGSEONGHO\DOCUMENTS\VISUAL STUDIO 2015\PROJECTS\브로포스\CLIENT\DEBUG\SCROLLMGR.OBJ
C:\USERS\JEONGSEONGHO\DOCUMENTS\VISUAL STUDIO 2015\PROJECTS\브로포스\CLIENT\DEBUG\SINGLETEXTURE.OBJ
C:\USERS\JEONGSEONGHO\DOCUMENTS\VISUAL STUDIO 2015\PROJECTS\브로포스\CLIENT\DEBUG\SOUNDMGR.OBJ
C:\USERS\JEONGSEONGHO\DOCUMENTS\VISUAL STUDIO 2015\PROJECTS\브로포스\CLIENT\DEBUG\STAGEBOSS.OBJ
C:\USERS\JEONGSEONGHO\DOCUMENTS\VISUAL STUDIO 2015\PROJECTS\브로포스\CLIENT\DEBUG\STAGEONE.OBJ
C:\USERS\JEONGSEONGHO\DOCUMENTS\VISUAL STUDIO 2015\PROJECTS\브로포스\CLIENT\DEBUG\STAGETWO.OBJ
C:\USERS\JEONGSEONGHO\DOCUMENTS\VISUAL STUDIO 2015\PROJECTS\브로포스\CLIENT\DEBUG\STDAFX.OBJ
C:\USERS\JEONGSEONGHO\DOCUMENTS\VISUAL STUDIO 2015\PROJECTS\브로포스\CLIENT\DEBUG\SUBJECT.OBJ
C:\USERS\JEONGSEONGHO\DOCUMENTS\VISUAL STUDIO 2015\PROJECTS\브로포스\CLIENT\DEBUG\SUICIDEMOOK.OBJ
C:\USERS\JEONGSEONGHO\DOCUMENTS\VISUAL STUDIO 2015\PROJECTS\브로포스\CLIENT\DEBUG\TERRAIN.OBJ
C:\USERS\JEONGSEONGHO\DOCUMENTS\VISUAL STUDIO 2015\PROJECTS\브로포스\CLIENT\DEBUG\TEXTURE.OBJ
C:\USERS\JEONGSEONGHO\DOCUMENTS\VISUAL STUDIO 2015\PROJECTS\브로포스\CLIENT\DEBUG\TEXTUREMGR.OBJ
C:\USERS\JEONGSEONGHO\DOCUMENTS\VISUAL STUDIO 2015\PROJECTS\브로포스\CLIENT\DEBUG\TIMEMGR.OBJ
C:\USERS\JEONGSEONGHO\DOCUMENTS\VISUAL STUDIO 2015\PROJECTS\브로포스\CLIENT\DEBUG\UI.OBJ
C:\USERS\JEONGSEONGHO\DOCUMENTS\VISUAL STUDIO 2015\PROJECTS\브로포스\CLIENT\DEBUG\UIBOMB.OBJ
C:\USERS\JEONGSEONGHO\DOCUMENTS\VISUAL STUDIO 2015\PROJECTS\브로포스\CLIENT\DEBUG\UIFACE.OBJ
C:\USERS\JEONGSEONGHO\DOCUMENTS\VISUAL STUDIO 2015\PROJECTS\브로포스\CLIENT\DEBUG\UILIVE.OBJ
C:\USERS\JEONGSEONGHO\DOCUMENTS\VISUAL STUDIO 2015\PROJECTS\브로포스\CLIENT\DEBUG\UIOBSERVER.OBJ
C:\WINDOWS\SYSTEM32\TZRES.DLL
C:\PROGRAM FILES (X86)\MICROSOFT VISUAL STUDIO 14.0\VC\LIB\MSVCPRTD.LIB
C:\PROGRAM FILES (X86)\MICROSOFT DIRECTX SDK (JUNE 2010)\LIB\X86\D3D9.LIB
C:\PROGRAM FILES (X86)\MICROSOFT DIRECTX SDK (JUNE 2010)\LIB\X86\D3DX9.LIB
C:\USERS\JEONGSEONGHO\DOCUMENTS\VISUAL STUDIO 2015\PROJECTS\브로포스\CLIENT\FMODEX_VC.LIB
C:\PROGRAM FILES (X86)\VISUAL LEAK DETECTOR\LIB\WIN32\VLD.LIB
C:\PROGRAM FILES (X86)\WINDOWS KITS\8.1\LIB\WINV6.3\UM\X86\VFW32.LIB
C:\PROGRAM FILES (X86)\MICROSOFT VISUAL STUDIO 14.0\VC\LIB\MSVCRTD.LIB
C:\PROGRAM FILES (X86)\MICROSOFT VISUAL STUDIO 14.0\VC\LIB\OLDNAMES.LIB
C:\PROGRAM FILES (X86)\MICROSOFT VISUAL STUDIO 14.0\VC\LIB\VCRUNTIMED.LIB
C:\PROGRAM FILES (X86)\WINDOWS KITS\10\LIB\10.0.10240.0\UCRT\X86\UCRTD.LIB
C:\PROGRAM FILES (X86)\WINDOWS KITS\8.1\BIN\X86\RC.EXE
C:\PROGRAM FILES (X86)\MICROSOFT VISUAL STUDIO 14.0\VC\BIN\CVTRES.EXE
