^C:\USERS\JEONGSEONGHO\DOCUMENTS\VISUAL STUDIO 2015\PROJECTS\MFC\MAPTOOL 주말과제\CLIENT\CLIENT.RC
/D _UNICODE /D UNICODE /l"0x0409" /nologo /fo"DEBUG\CLIENT.RES"   C:\USERS\JEONGSEONGHO\DOCUMENTS\VISUAL STUDIO 2015\PROJECTS\MFC\MAPTOOL 주말과제\CLIENT\CLIENT.RC
^C:\USERS\JEONGSEONGHO\DOCUMENTS\VISUAL STUDIO 2015\PROJECTS\MFC\MAPTOOL 181023HW\CLIENT\CLIENT.RC
/D _UNICODE /D UNICODE /l"0x0409" /nologo /fo"DEBUG\CLIENT.RES"   C:\USERS\JEONGSEONGHO\DOCUMENTS\VISUAL STUDIO 2015\PROJECTS\MFC\MAPTOOL 181023HW\CLIENT\CLIENT.RC
^C:\USERS\JEONGSEONGHO\DOCUMENTS\VISUAL STUDIO 2015\PROJECTS\MFC\MAPTOOL 181025HW\CLIENT\CLIENT.RC
/D _UNICODE /D UNICODE /l"0x0409" /nologo /fo"DEBUG\CLIENT.RES"   C:\USERS\JEONGSEONGHO\DOCUMENTS\VISUAL STUDIO 2015\PROJECTS\MFC\MAPTOOL 181025HW\CLIENT\CLIENT.RC
^C:\USERS\JEONGSEONGHO\DOCUMENTS\VISUAL STUDIO 2015\PROJECTS\MFC\MAPTOOL 181025HW - 복사본\CLIENT\CLIENT.RC
/D _UNICODE /D UNICODE /l"0x0409" /nologo /fo"DEBUG\CLIENT.RES"   C:\USERS\JEONGSEONGHO\DOCUMENTS\VISUAL STUDIO 2015\PROJECTS\MFC\MAPTOOL 181025HW - 복사본\CLIENT\CLIENT.RC
^C:\USERS\JEONGSEONGHO\DOCUMENTS\VISUAL STUDIO 2015\PROJECTS\MAPTOOL 32X32\CLIENT\CLIENT.RC
/D _UNICODE /D UNICODE /l"0x0409" /nologo /fo"DEBUG\CLIENT.RES"   C:\USERS\JEONGSEONGHO\DOCUMENTS\VISUAL STUDIO 2015\PROJECTS\MAPTOOL 32X32\CLIENT\CLIENT.RC
^C:\USERS\JEONGSEONGHO\DOCUMENTS\VISUAL STUDIO 2015\PROJECTS\브로포스\CLIENT\CLIENT.RC
/D _UNICODE /D UNICODE /l"0x0409" /nologo /fo"DEBUG\CLIENT.RES"   C:\USERS\JEONGSEONGHO\DOCUMENTS\VISUAL STUDIO 2015\PROJECTS\브로포스\CLIENT\CLIENT.RC
^C:\USERS\JEONGSEONGHO\DESKTOP\브로포스 (2) (2)\CLIENT\CLIENT.RC
/D _UNICODE /D UNICODE /l"0x0409" /nologo /fo"DEBUG\CLIENT.RES"   C:\USERS\JEONGSEONGHO\DESKTOP\브로포스 (2) (2)\CLIENT\CLIENT.RC
