^C:\USERS\JEONGSEONGHO\DOCUMENTS\VISUAL STUDIO 2015\PROJECTS\MFC\MAPTOOL 주말과제\CLIENT\CLIENT.RC
C:\USERS\JEONGSEONGHO\DOCUMENTS\VISUAL STUDIO 2015\PROJECTS\MFC\MAPTOOL 주말과제\CLIENT\DEBUG\CLIENT.RES
^C:\USERS\JEONGSEONGHO\DOCUMENTS\VISUAL STUDIO 2015\PROJECTS\MFC\MAPTOOL 181023HW\CLIENT\CLIENT.RC
C:\USERS\JEONGSEONGHO\DOCUMENTS\VISUAL STUDIO 2015\PROJECTS\MFC\MAPTOOL 181023HW\CLIENT\DEBUG\CLIENT.RES
^C:\USERS\JEONGSEONGHO\DOCUMENTS\VISUAL STUDIO 2015\PROJECTS\MFC\MAPTOOL 181025HW\CLIENT\CLIENT.RC
C:\USERS\JEONGSEONGHO\DOCUMENTS\VISUAL STUDIO 2015\PROJECTS\MFC\MAPTOOL 181025HW\CLIENT\DEBUG\CLIENT.RES
^C:\USERS\JEONGSEONGHO\DOCUMENTS\VISUAL STUDIO 2015\PROJECTS\브로포스\CLIENT\CLIENT.RC
C:\USERS\JEONGSEONGHO\DOCUMENTS\VISUAL STUDIO 2015\PROJECTS\브로포스\CLIENT\DEBUG\CLIENT.RES
