^C:\USERS\JEONGSEONGHO\DOCUMENTS\VISUAL STUDIO 2015\PROJECTS\MFC\MAPTOOL 181011 싱글텍스쳐\TOOL\TOOL.RC
C:\USERS\JEONGSEONGHO\DOCUMENTS\VISUAL STUDIO 2015\PROJECTS\MFC\MAPTOOL 181011 싱글텍스쳐\TOOL\DEBUG\TOOL.RES
^C:\USERS\JEONGSEONGHO\DOCUMENTS\VISUAL STUDIO 2015\PROJECTS\MFC\MAPTOOL 181012 멀티텍스쳐\TOOL\TOOL.RC
C:\USERS\JEONGSEONGHO\DOCUMENTS\VISUAL STUDIO 2015\PROJECTS\MFC\MAPTOOL 181012 멀티텍스쳐\TOOL\DEBUG\TOOL.RES
^C:\USERS\JEONGSEONGHO\DOCUMENTS\VISUAL STUDIO 2015\PROJECTS\MFC\MAPTOOL 181015 타일깔기\TOOL\TOOL.RC
C:\USERS\JEONGSEONGHO\DOCUMENTS\VISUAL STUDIO 2015\PROJECTS\MFC\MAPTOOL 181015 타일깔기\TOOL\DEBUG\TOOL.RES
^C:\USERS\JEONGSEONGHO\DOCUMENTS\VISUAL STUDIO 2015\PROJECTS\MFC\MAPTOOL 181016 화면 분할\TOOL\TOOL.RC
C:\USERS\JEONGSEONGHO\DOCUMENTS\VISUAL STUDIO 2015\PROJECTS\MFC\MAPTOOL 181016 화면 분할\TOOL\DEBUG\TOOL.RES
^C:\USERS\JEONGSEONGHO\DOCUMENTS\VISUAL STUDIO 2015\PROJECTS\MFC\MAPTOOL 181017HW\TOOL\TOOL.RC
C:\USERS\JEONGSEONGHO\DOCUMENTS\VISUAL STUDIO 2015\PROJECTS\MFC\MAPTOOL 181017HW\TOOL\DEBUG\TOOL.RES
^C:\USERS\JEONGSEONGHO\DOCUMENTS\VISUAL STUDIO 2015\PROJECTS\MFC\MAPTOOL 181018HW\TOOL\TOOL.RC
C:\USERS\JEONGSEONGHO\DOCUMENTS\VISUAL STUDIO 2015\PROJECTS\MFC\MAPTOOL 181018HW\TOOL\DEBUG\TOOL.RES
^C:\USERS\JEONGSEONGHO\DOCUMENTS\VISUAL STUDIO 2015\PROJECTS\MFC\MAPTOOL 주말과제\TOOL\TOOL.RC
C:\USERS\JEONGSEONGHO\DOCUMENTS\VISUAL STUDIO 2015\PROJECTS\MFC\MAPTOOL 주말과제\TOOL\DEBUG\TOOL.RES
^C:\USERS\JEONGSEONGHO\DOCUMENTS\VISUAL STUDIO 2015\PROJECTS\MFC\MAPTOOL 181023HW\TOOL\TOOL.RC
C:\USERS\JEONGSEONGHO\DOCUMENTS\VISUAL STUDIO 2015\PROJECTS\MFC\MAPTOOL 181023HW\TOOL\DEBUG\TOOL.RES
^C:\USERS\JEONGSEONGHO\DOCUMENTS\VISUAL STUDIO 2015\PROJECTS\MFC\MAPTOOL 181025HW\TOOL\TOOL.RC
C:\USERS\JEONGSEONGHO\DOCUMENTS\VISUAL STUDIO 2015\PROJECTS\MFC\MAPTOOL 181025HW\TOOL\DEBUG\TOOL.RES
^C:\USERS\JEONGSEONGHO\DOCUMENTS\VISUAL STUDIO 2015\PROJECTS\브로포스\TOOL\TOOL.RC
C:\USERS\JEONGSEONGHO\DOCUMENTS\VISUAL STUDIO 2015\PROJECTS\브로포스\TOOL\DEBUG\TOOL.RES
