^C:\USERS\JEONGSEONGHO\DESKTOP\쥬신\4. 쥬신 MFC\181010_장치초기화 및 MFC시작\FRAMEWORK90\TOOL\TOOL.RC
C:\USERS\JEONGSEONGHO\DESKTOP\쥬신\4. 쥬신 MFC\181010_장치초기화 및 MFC시작\FRAMEWORK90\TOOL\RESOURCE.H
C:\USERS\JEONGSEONGHO\DESKTOP\쥬신\4. 쥬신 MFC\181010_장치초기화 및 MFC시작\FRAMEWORK90\TOOL\TARGETVER.H
C:\PROGRAM FILES (X86)\WINDOWS KITS\8.1\INCLUDE\SHARED\SDKDDKVER.H
C:\PROGRAM FILES (X86)\MICROSOFT VISUAL STUDIO 14.0\VC\ATLMFC\INCLUDE\AFXRES.H
C:\PROGRAM FILES (X86)\WINDOWS KITS\8.1\INCLUDE\UM\WINRES.H
C:\PROGRAM FILES (X86)\WINDOWS KITS\8.1\INCLUDE\UM\WINRESRC.H
C:\PROGRAM FILES (X86)\WINDOWS KITS\8.1\INCLUDE\UM\WINUSER.RH
C:\PROGRAM FILES (X86)\WINDOWS KITS\8.1\INCLUDE\UM\COMMCTRL.RH
C:\PROGRAM FILES (X86)\WINDOWS KITS\8.1\INCLUDE\UM\DDE.RH
C:\PROGRAM FILES (X86)\WINDOWS KITS\8.1\INCLUDE\UM\WINNT.RH
C:\PROGRAM FILES (X86)\WINDOWS KITS\8.1\INCLUDE\UM\DLGS.H
C:\PROGRAM FILES (X86)\WINDOWS KITS\8.1\INCLUDE\SHARED\WINAPIFAMILY.H
C:\PROGRAM FILES (X86)\WINDOWS KITS\8.1\INCLUDE\UM\WINVER.H
C:\PROGRAM FILES (X86)\WINDOWS KITS\8.1\INCLUDE\SHARED\SPECSTRINGS.H
C:\PROGRAM FILES (X86)\MICROSOFT VISUAL STUDIO 14.0\VC\INCLUDE\SAL.H
C:\PROGRAM FILES (X86)\MICROSOFT VISUAL STUDIO 14.0\VC\INCLUDE\CONCURRENCYSAL.H
C:\PROGRAM FILES (X86)\WINDOWS KITS\8.1\INCLUDE\SHARED\DRIVERSPECS.H
C:\PROGRAM FILES (X86)\WINDOWS KITS\8.1\INCLUDE\SHARED\SDV_DRIVERSPECS.H
C:\PROGRAM FILES (X86)\WINDOWS KITS\8.1\INCLUDE\UM\VERRSRC.H
C:\USERS\JEONGSEONGHO\DESKTOP\쥬신\4. 쥬신 MFC\181010_장치초기화 및 MFC시작\FRAMEWORK90\TOOL\RES\TOOL.RC2
C:\PROGRAM FILES (X86)\MICROSOFT VISUAL STUDIO 14.0\VC\ATLMFC\INCLUDE\L.KOR\AFXRES.RC
C:\PROGRAM FILES (X86)\MICROSOFT VISUAL STUDIO 14.0\VC\ATLMFC\INCLUDE\L.KOR\AFXPRINT.RC
C:\USERS\JEONGSEONGHO\DESKTOP\쥬신\4. 쥬신 MFC\181010_장치초기화 및 MFC시작\FRAMEWORK90\TOOL\RES\TOOL.ICO
C:\USERS\JEONGSEONGHO\DESKTOP\쥬신\4. 쥬신 MFC\181010_장치초기화 및 MFC시작\FRAMEWORK90\TOOL\RES\TOOLDOC.ICO
C:\USERS\JEONGSEONGHO\DESKTOP\쥬신\4. 쥬신 MFC\181010_장치초기화 및 MFC시작\FRAMEWORK90\TOOL\RES\TOOLBAR.BMP
